This is BibTeX, Version 0.99dThe top-level auxiliary file: HSem.aux
The style file: splncs.bst
I found no \bibdata command---while reading file HSem.aux
Warning--I didn't find a database entry for "clar:eke"
(There was 1 error message)
