\relax 
\bibstyle{splncs}
\@writefile{toc}{\contentsline {title}{Neocortex-inspirierte Agenten auf Anwendungslandschaften}{1}}
\@writefile{toc}{\authcount {1}}
\@writefile{toc}{\contentsline {author}{Daniel Kirchner}{1}}
\@writefile{toc}{\contentsline {section}{\numberline {1}Einf\IeC {\"u}hrung}{1}}
\@writefile{toc}{\contentsline {paragraph}{\textit  {Hardwareplattformen}}{1}}
\@writefile{toc}{\contentsline {paragraph}{\textit  {Softwareplattformen}}{1}}
\@writefile{toc}{\contentsline {paragraph}{\textit  {Programmiersprachen}}{1}}
\@writefile{toc}{\contentsline {paragraph}{\textit  {Architekturparadigmen}}{1}}
\citation{Hawkins:2004:INT:993636}
\@writefile{toc}{\contentsline {section}{\numberline {2}Relevante Resultate aus den Neurowissenschaften}{2}}
\@writefile{toc}{\contentsline {section}{\numberline {3}Hierarchical Temporal Memory}{2}}
\@writefile{toc}{\contentsline {subsection}{\numberline {3.1}Neuronenmodell}{2}}
\@writefile{toc}{\contentsline {subsection}{\numberline {3.2}Sparse Distributed Representations}{2}}
\@writefile{toc}{\contentsline {subsection}{\numberline {3.3}Demonstration des Lernalgorithmus}{2}}
\@writefile{toc}{\contentsline {section}{\numberline {4}Informationsmodell und semantische Codierung von Anwendungslandschaften}{2}}
\@writefile{toc}{\contentsline {section}{\numberline {5}Konzept eines Agenten zur Exploration und Anomalienerkennung}{2}}
\@writefile{toc}{\contentsline {section}{\numberline {6}Hierarchical Temporal Memory}{2}}
\@writefile{toc}{\contentsline {subsection}{\numberline {6.1}Geschichte und \IeC {\"U}berblick}{2}}
