\relax 
\citation{Firstman:2014:Approach}
\citation{Firstman:2013:Ongoing}
\citation{Webpage:2014:Somewebpage}
\citation{Bookman:2014:Somebook}
\citation{Chapman:2014:Starting}
\citation{Firstman:2014:Approach}
\citation{Firstman:2013:Ongoing}
\citation{Webpage:2014:Somewebpage}
\citation{Bookman:2014:Somebook}
\citation{Chapman:2014:Starting}
\bibstyle{IEEEtran}
\bibdata{bibtemplate_samples}
\bibcite{Firstman:2014:Approach}{1}
\bibcite{Firstman:2013:Ongoing}{2}
\bibcite{Webpage:2014:Somewebpage}{3}
\bibcite{Bookman:2014:Somebook}{4}
\bibcite{Chapman:2014:Starting}{5}
\@writefile{toc}{\contentsline {section}{\numberline {I}Introduction}{}}
\@writefile{toc}{\contentsline {subsection}{\numberline {\unhbox \voidb@x \hbox {I-A}}Subsection Heading Here}{}}
\@writefile{toc}{\contentsline {subsubsection}{\numberline {\unhbox \voidb@x \hbox {I-A}1}Subsubsection Heading Here}{}}
\@writefile{toc}{\contentsline {subsection}{\numberline {\unhbox \voidb@x \hbox {I-B}}Subsection Heading Here}{}}
\@writefile{toc}{\contentsline {subsection}{\numberline {\unhbox \voidb@x \hbox {I-C}}Subsection Heading Here}{}}
\@writefile{lof}{\contentsline {figure}{\numberline {1}{\ignorespaces My figure.\relax }}{}}
\providecommand*\caption@xref[2]{\@setref\relax\@undefined{#1}}
\newlabel{myfigone}{{1}{}}
\@writefile{lot}{\contentsline {table}{\numberline {I}{\ignorespaces My table.\relax }}{}}
\newlabel{mytabone}{{I}{}}
\@writefile{toc}{\contentsline {section}{\numberline {II}Conclusion}{}}
\@writefile{toc}{\contentsline {section}{References}{}}
