\relax 
\providecommand\hyper@newdestlabel[2]{}
\catcode`"\active
\providecommand\HyperFirstAtBeginDocument{\AtBeginDocument}
\HyperFirstAtBeginDocument{\ifx\hyper@anchor\@undefined
\global\let\oldcontentsline\contentsline
\gdef\contentsline#1#2#3#4{\oldcontentsline{#1}{#2}{#3}}
\global\let\oldnewlabel\newlabel
\gdef\newlabel#1#2{\newlabelxx{#1}#2}
\gdef\newlabelxx#1#2#3#4#5#6{\oldnewlabel{#1}{{#2}{#3}}}
\AtEndDocument{\ifx\hyper@anchor\@undefined
\let\contentsline\oldcontentsline
\let\newlabel\oldnewlabel
\fi}
\fi}
\global\let\hyper@last\relax 
\gdef\HyperFirstAtBeginDocument#1{#1}
\providecommand\HyField@AuxAddToFields[1]{}
\providecommand\HyField@AuxAddToCoFields[2]{}
\citation{Yue353}
\@writefile{toc}{\contentsline {section}{\numberline {1} Einf\IeC {\"u}hrung}{1}{section.1}}
\@writefile{toc}{\contentsline {section}{\numberline {2} Neurowissenschaftliche Motivation}{1}{section.2}}
\@writefile{toc}{\contentsline {subsection}{\numberline {2.1} Neocortex}{1}{subsection.2.1}}
\citation{Yue353}
\citation{Yue353}
\citation{Ramirez387}
\citation{Modha27072010}
\citation{Buxhoeveden935}
\citation{Hawkins:2004:INT:993636}
\citation{citeulike:13828786}
\citation{citeulike:13828786}
\@writefile{lof}{\contentsline {figure}{\numberline {1}{\ignorespaces {\it  MRT Scan einer kognitiv gesunden Frau ohne Cerebellum, Quelle: \cite  {Yue353}}\relax }}{2}{figure.caption.1}}
\providecommand*\caption@xref[2]{\@setref\relax\@undefined{#1}}
\newlabel{cerebellum}{{1}{2}{{\it MRT Scan einer kognitiv gesunden Frau ohne Cerebellum, Quelle: \cite {Yue353}}\relax }{figure.caption.1}{}}
\@writefile{toc}{\contentsline {section}{\numberline {3} Hierarchical Temporal Memory}{2}{section.3}}
\@writefile{toc}{\contentsline {subsection}{\numberline {3.1} Geschichte und \IeC {\"U}berblick}{2}{subsection.3.1}}
\@writefile{toc}{\contentsline {subsection}{\numberline {3.2} Modellneuron}{2}{subsection.3.2}}
\@writefile{lof}{\contentsline {figure}{\numberline {2}{\ignorespaces {\it  Hierarchisches Modell des Neokortex - stark vereinfacht.}\relax }}{3}{figure.2}}
\newlabel{hierarchy}{{2}{3}{{\it Hierarchisches Modell des Neokortex - stark vereinfacht.}\relax }{figure.2}{}}
\@writefile{lof}{\contentsline {figure}{\numberline {3}{\ignorespaces {\it  Links: Biologisches Neuron mit soma-nahen Dendriten (gr\IeC {\"u}n), entfernten Dendriten (blau) und Axon (schwarz).  Mitte: Klassisches k\IeC {\"u}nstliches Neuron.  Rechts: HTM Modellneuron mit farblicher Zuordnung zu biologischem Neuron.  Quelle:\cite  {citeulike:13828786}}\relax }}{3}{figure.3}}
\newlabel{neurons}{{3}{3}{{\it Links: Biologisches Neuron mit soma-nahen Dendriten (grün), entfernten Dendriten (blau) und Axon (schwarz).\\ Mitte: Klassisches künstliches Neuron.\\ Rechts: HTM Modellneuron mit farblicher Zuordnung zu biologischem Neuron.\\ Quelle:\cite {citeulike:13828786}}\relax }{figure.3}{}}
\citation{citeulike:13828786}
\citation{citeulike:13828786}
\@writefile{toc}{\contentsline {subsection}{\numberline {3.3} Sparse Distributed Representation}{4}{subsection.3.3}}
\@writefile{toc}{\contentsline {subsection}{\numberline {3.4} Ma\IeC {\ss } f\IeC {\"u}r Anomalien}{4}{subsection.3.4}}
\newlabel{anomalien}{{3.4}{4}{Maß für Anomalien}{subsection.3.4}{}}
\citation{DBLP:journals/corr/AhmadH15}
\citation{citeulike:13828786}
\@writefile{lof}{\contentsline {figure}{\numberline {4}{\ignorespaces {\it  Mini-Columns in einer Corticalen Schicht. Dunkelgraue Neuronen sind aktiviert. Hellgraue Neuronen sind bei der aktuellen Aktivierung im \active@dq  \dq@prtct{`}Predictive State\active@dq  \dq@prtct{'} bzw. depolarisiert  Quelle: \cite  {citeulike:13828786}}\relax }}{5}{figure.caption.2}}
\newlabel{predictive}{{4}{5}{{\it Mini-Columns in einer Corticalen Schicht. Dunkelgraue Neuronen sind aktiviert. Hellgraue Neuronen sind bei der aktuellen Aktivierung im "`Predictive State"' bzw. depolarisiert\\ Quelle: \cite {citeulike:13828786}}\relax }{figure.caption.2}{}}
\@writefile{toc}{\contentsline {subsection}{\numberline {3.5} Klassifikation von Zust\IeC {\"a}nden}{5}{subsection.3.5}}
\@writefile{toc}{\contentsline {section}{\numberline {4} Semantische Codierung von Ereignissen auf Anwendungslandschaften}{5}{section.4}}
\@writefile{toc}{\contentsline {section}{\numberline {5} Konzept eines Agenten zur Exploration und Anomalienerkennung}{5}{section.5}}
\@writefile{toc}{\contentsline {section}{\numberline {6} Zusammenfassung und Ausblick}{5}{section.6}}
\citation{*}
\bibstyle{IEEEbib}
\bibdata{minfsem_tmpl}
\bibcite{Yue353}{1}
\bibcite{Ramirez387}{2}
\bibcite{Modha27072010}{3}
\bibcite{Buxhoeveden935}{4}
\bibcite{Hawkins:2004:INT:993636}{5}
\bibcite{citeulike:13828786}{6}
\bibcite{DBLP:journals/corr/AhmadH15}{7}
\bibcite{Chandola:2009:ADS:1541880.1541882}{8}
\bibcite{Hawkins:2013:OLS:2505515.2514695}{9}
\@writefile{lof}{\contentsline {figure}{\numberline {5}{\ignorespaces {\it  Grobkonzept eines HTM-Agenten auf Anwendungslandschaften.}\relax }}{6}{figure.5}}
\newlabel{agent}{{5}{6}{{\it Grobkonzept eines HTM-Agenten auf Anwendungslandschaften.}\relax }{figure.5}{}}
\@writefile{toc}{\contentsline {section}{\numberline {7} References}{6}{section.7}}
\bibcite{DBLP:journals/corr/Purdy16}{10}
\bibcite{DBLP:journals/corr/LavinA15}{11}
